{
  "db": {
    "name": "db",
    "connector": "memory"
  },
  "accountDS": {
    "host": "80.211.158.151",
    "port": 27017,
    "database": "ledleg",
    "username": "Gabi679",
    "password": "asd123asd123fgh456",
    "name": "accountDS",
    "connector": "mongodb"
  },
  "filestore": {
    "host": "80.211.158.151",
    "port": 27017,
    "database": "ledleg",
    "username": "Gabi679",
    "password": "asd123asd123fgh456",
    "name": "filestore",
    "connector": "loopback-component-storage-mongo"
  },
  "error": {
    "host": "ds213472.mlab.com",
    "port": 13472,
    "database": "ledleg",
    "username": "Gabi679",
    "password": "asd123asd123fgh456",
    "name": "accountDS",
    "connector": "mongodb"
  }
}
