{
    "swagger": "2.0",
    "info": {
        "version": "1.0.0",
          "title": "WEBSHOP API",
        "contact": {
            "email": "gabi.harangozo29@gmail.com"
        }
    },
    "tags": [
        {
            "name": "Person",
            "description": ""
        }
    ],
    "schemes": [
        "http"
    ],
    "paths": {
        "/Person": {
            "post": {
                "operationId": "addPerson",
                "consumes": [
                    "application/json"
                ],
                "tags": [
                    "Person"
                ],
                "parameters": [
                    {
                        "in": "body",
                        "name": "body",
                        "schema": {
                            "$ref": "#/definitions/Person"
                        }
                    }
                ],
                "responses": {
                    "201": {
                        "description": "Person was created."
                    }
                }
            },
            "get": {
                "operationId": "getPerson",
                "produces": [
                    "application/json"
                ],
                "tags": [
                    "Person"
                ],
                "parameters": [
                    {
                        "in": "query",
                        "name": "id",
                        "type": "string",
                        "required": false
                    },
                    {
                        "in": "query",
                        "name": "email",
                        "type": "string",
                        "required": false
                    }
                ],
                "responses": {
                    "200": {
                        "description": "OK",
                        "schema": {
                            "type": "array",
                            "items": {
                                "$ref": "#/definitions/Person"
                            }
                        }
                    }
                }
            },
            "delete": {
                "operationId": "deletePerson",
                "consumes": [
                    "application/json"
                ],
                "tags": [
                    "Person"
                ],
                "parameters": [
                    {
                        "in": "query",
                        "name": "id",
                        "type": "string",
                        "required": true
                    }
                ],
                "responses": {
                    "200": {
                        "description": "Person has been deleted."
                    }
                }
            }
        },
        "/Person/{id}": {
            "put": {
                "operationId": "updatePerson",
                "consumes": [
                    "application/json"
                ],
                "tags": [
                    "Person"
                ],
                "parameters": [
                    {
                        "in": "path",
                        "name": "id",
                        "type": "string",
                        "required": true
                    },
                    {
                        "in": "query",
                        "name": "name",
                        "type": "string",
                        "required": false
                    },
                    {
                        "in": "query",
                        "name": "post_address",
                        "type": "string",
                        "required": false
                    },
                    {
                        "in": "query",
                        "name": "phone",
                        "type": "string",
                        "required": false
                    },
                    {
                        "in": "query",
                        "name": "email",
                        "type": "string",
                        "required": false
                    }
                ],
                "responses": {
                    "201": {
                        "description": "Person is updated."
                    }
                }
            }
        }
    },
    "definitions": {
        "Person": {
            "type": "object",
            "properties": {
                "id": {
                    "type": "string"
                },
                "name": {
                    "type": "string"
                },
                "post_address": {
                    "type": "string"
                },
                "phone": {
                    "type": "string"
                },
                "email": {
                    "type": "string"
                }
                
                
            }
        }
        
    }
}