{
    "swagger": "2.0",
    "info": {
        "version": "1.0.0",
          "title": "WEBSHOP API",
        "contact": {
            "email": "gabi.harangozo29@gmail.com"
        }
    },
    "tags": [
        {
            "name": "MainCategory",
            "description": ""
        }
    ],
    "schemes": [
        "http"
    ],
    "paths": {
        "/SubCategory": {
            "post": {
                "operationId": "addSubCategory",
                "consumes": [
                    "application/json"
                ],
                "tags": [
                    "SubCategory"
                ],
                "parameters": [
                    {
                        "in": "body",
                        "name": "body",
                        "schema": {
                            "$ref": "#/definitions/SubCategory"
                        }
                    }
                ],
                "responses": {
                    "201": {
                        "description": "SubCategory was created."
                    }
                }
            },
            "get": {
                "operationId": "getSubCategory",
                "produces": [
                    "application/json"
                ],
                "tags": [
                    "SubCategory"
                ],
                "parameters": [
                    {
                        "in": "query",
                        "name": "id",
                        "type": "string",
                        "required": false
                    },
                    {
                        "in": "query",
                        "name": "name",
                        "type": "string",
                        "required": false
                    },
                    {
                        "in": "query",
                        "name": "mainCategory_id",
                        "type": "string",
                        "required": false
                    }
                ],
                "responses": {
                    "200": {
                        "description": "OK",
                        "schema": {
                            "type": "array",
                            "items": {
                                "$ref": "#/definitions/SubCategory"
                            }
                        }
                    }
                }
            },
            "delete": {
                "operationId": "deleteSubCategory",
                "consumes": [
                    "application/json"
                ],
                "tags": [
                    "SubCategory"
                ],
                "parameters": [
                    {
                        "in": "query",
                        "name": "id",
                        "type": "string",
                        "required": true
                    }
                ],
                "responses": {
                    "200": {
                        "description": "SubCategory has been deleted."
                    }
                }
            }
        },
        "/SubCategory/{id}": {
            "put": {
                "operationId": "updateSubCategory",
                "consumes": [
                    "application/json"
                ],
                "tags": [
                    "SubCategory"
                ],
                "parameters": [
                    {
                        "in": "path",
                        "name": "id",
                        "type": "string",
                        "required": true
                    },
                    {
                        "in": "query",
                        "name": "mainCategory_id",
                        "type": "string",
                        "required": false
                    },
                    {
                        "in": "query",
                        "name": "name",
                        "type": "string",
                        "required": false
                    }
                ],
                "responses": {
                    "201": {
                        "description": "SubCategory is updated."
                    }
                }
            }
        }
    },
    "definitions": {
        "SubCategory": {
            "type": "object",
            "properties": {
                "id": {
                    "type": "string"
                },
                "mainCategory_id": {
                    "type": "string"
                },
                "name": {
                    "type": "string"
                }
                
            }
        }
        
    }
}